<?xml version="1.0" encoding="UTF-8"?>
<svg width="140px" height="40px" viewBox="0 0 140 40" version="1.1" xmlns="http://www.w3.org/2000/svg" xmlns:xlink="http://www.w3.org/1999/xlink">
    <!-- Generator: Sketch 51.2 (57519) - http://www.bohemiancoding.com/sketch -->
    <title>Дом Комаровых-03</title>
    <desc>Created with Sketch.</desc>
    <defs></defs>
    <g id="Symbols" stroke="none" stroke-width="1" fill="none" fill-rule="evenodd">
        <g id="Панель-навигации-Copy" transform="translate(-43.000000, -26.000000)" fill="#FFFFFF" fill-rule="nonzero">
            <g id="Дом-Комаровых-03" transform="translate(43.000000, 26.000000)">
                <polygon id="Shape" points="12 24.17 26.3689525 24.25 40.7379049 24.3 69.4919366 24.34 98.2459682 24.3 112.614921 24.25 127 24.17 112.614921 24.09 98.2459682 24.04 69.4919366 24 40.7379049 24.04 26.3689525 24.09"></polygon>
                <g id="Group">
                    <polygon id="Shape" points="0.836781609 0.828125 0.949425287 0.71875 5.56781609 0.71875 5.71264367 0.828125 4.4091954 1.765625 4.31264368 1.890625 4.31264368 8.40625 10.508046 1.875 10.508046 1.75 10.4114943 1.75 9.3816092 0.890625 9.51034483 0.78125 13.9356321 0.78125 14.0643679 0.890625 12.1655172 1.859375 12.1655172 1.859375 6.88735633 7.453125 6.88735633 7.453125 6.88735633 7.53125 13.3241379 15.75 13.4045978 15.75 15.2551724 16.71875 15.1264368 16.84375 9.3816092 16.84375 9.25287356 16.71875 10.3632184 15.890625 10.4597701 15.890625 10.4597701 15.765625 5.24597701 9.1875 5.14942529 9.1875 5.06896551 9.1875 4.29655173 10 4.29655173 15.765625 4.39310345 15.875 5.61609195 16.796875 5.48735633 16.921875 0.949425287 16.921875 0.836781609 16.796875 1.94712644 15.859375 2.07586207 15.75 2.07586207 1.890625 1.94712644 1.765625"></polygon>
                    <path d="M27.3563219,0.359375 C29.6967939,0.263193947 31.9702184,1.13142156 33.616092,2.75 C36.7531341,6.18203605 36.7531341,11.3492139 33.616092,14.78125 C31.9764462,16.4105907 29.700258,17.2855555 27.3563219,17.1875 C24.9987847,17.2724827 22.7099626,16.4072715 21.0321839,14.796875 C19.3703065,13.2137 18.4709106,11.0247858 18.554023,8.765625 C18.5035355,6.49682156 19.419592,4.30836196 21.0858591,2.71706651 C22.7521262,1.12577107 25.0208741,0.272722749 27.3563219,0.359375 Z M27.0505747,1.421875 C25.2711892,1.364177 23.5778465,2.16580034 22.5287356,3.5625 C21.5226331,4.92673506 21.0028046,6.57264005 21.0482759,8.25 C21.0396594,9.523394 21.2855831,10.7863147 21.7724137,11.96875 C22.2448399,13.1872894 23.065453,14.2496904 24.137931,15.03125 C25.1597704,15.7831181 26.412384,16.1793675 27.6942529,16.15625 C29.4793346,16.2460701 31.1826095,15.4221092 32.183908,13.984375 C33.1172662,12.5927296 33.5890181,10.9567915 33.5356321,9.296875 C33.5974907,7.35889149 33.0040304,5.4545575 31.845977,3.875 C30.7835004,2.30810529 28.966121,1.38152021 27.0344827,1.421875 L27.0505747,1.421875 Z" id="Shape"></path>
                    <polygon id="Shape" points="44.462069 0.71875 44.5586207 0.71875 50.0137931 13.390625 55.4850575 0.71875 55.5816092 0.71875 59.8942529 0.71875 60.0229885 0.828125 58.5103449 1.765625 58.3655172 1.890625 58.3655172 15.734375 58.5103449 15.84375 60.1195402 16.78125 60.0068965 16.90625 54.7126436 16.90625 54.583908 16.78125 56.0643679 15.84375 56.1770115 15.734375 56.1770115 2.359375 56.0804597 2.359375 49.7563219 17.078125 49.6275862 17.078125 49.354023 17.078125 49.2252874 17.078125 42.9011494 2.53125 42.8045977 2.53125 42.8045977 15.734375 42.9172414 15.84375 44.3977011 16.78125 44.2689655 16.90625 40.0528736 16.90625 39.9241379 16.78125 41.5333334 15.84375 41.662069 15.734375 41.662069 1.890625 41.5333334 1.765625 40.0850575 0.828125 40.2137931 0.71875"></polygon>
                    <path d="M75.6321839,16.90625 L75.5034482,16.78125 L76.5977011,15.84375 L76.6942529,15.84375 C76.6942529,15.84375 76.6942529,15.84375 76.6942529,15.734375 L74.7954022,11.046875 C74.7954022,11.046875 74.7954022,10.96875 74.6988506,10.96875 L69.1149425,10.96875 L69.0183907,11.046875 L67.0068965,15.734375 L67.1356321,15.90625 L68.7448276,16.78125 L68.2942529,16.90625 L64.2390805,16.90625 L64.1103449,16.78125 L65.5908046,15.84375 L65.6873564,15.84375 L72.1241379,0.4375 C72.1320714,0.391899689 72.1730659,0.358728929 72.2206896,0.359375 L72.8643679,0.359375 C72.8643679,0.359375 72.9448276,0.359375 72.9609195,0.4375 L78.9471264,15.8125 L79.0436781,15.8125 L80.3471264,16.78125 L80.2022989,16.90625 L75.6321839,16.90625 Z M72.091954,3.9375 C72.091954,3.9375 72.091954,3.9375 71.9954022,3.9375 C71.9648499,3.92342824 71.929403,3.92342824 71.8988506,3.9375 L69.5011494,9.703125 C69.5011494,9.8125 69.5011494,9.875 69.5977011,9.875 L74.2321839,9.875 C74.3609195,9.875 74.4091954,9.875 74.3770115,9.703125 L72.091954,3.9375 Z" id="Shape"></path>
                    <path d="M89.583908,0.71875 C91.3161464,0.582487794 93.052434,0.929426295 94.5885057,1.71875 C95.7211202,2.41591879 96.3979597,3.63558546 96.3747126,4.9375 C96.3796006,6.48860246 95.4200395,7.88926261 93.9448276,8.484375 C93.4363257,8.74731272 92.8956451,8.94680937 92.3356321,9.078125 C93.4343167,9.69609802 94.3021791,10.6372718 94.8137931,11.765625 L97.0183907,15.734375 L97.2114942,15.8125 L99.2068965,16.75 L99.0781609,16.875 L95.0551724,16.875 C94.9805936,16.8879999 94.9050765,16.8574475 94.862069,16.796875 L92.6574712,12.5 C91.5846744,10.4166667 90.2168582,9.375 88.554023,9.375 L88.2482759,9.375 C88.2482759,9.375 88.1356321,9.375 88.1356321,9.484375 L88.1356321,15.734375 L88.2482759,15.84375 L89.8574712,16.78125 L89.7126436,16.90625 L84.354023,16.90625 L84.2252874,16.78125 L85.7057471,15.84375 L85.8183907,15.734375 L85.8183907,1.890625 L85.7057471,1.765625 L84.2252874,0.828125 L84.354023,0.71875 L89.583908,0.71875 Z M88.1356321,8.234375 C88.1356321,8.3125 88.1356321,8.359375 88.2321839,8.359375 C89.4122605,8.359375 90.2436781,8.359375 90.7264367,8.359375 C91.7812781,8.34719282 92.7671697,7.84824524 93.3816092,7.015625 C93.7221545,6.52263692 93.8913209,5.93678509 93.8643679,5.34375 C93.8643679,3.02083334 92.2980842,1.859375 89.1655172,1.859375 L88.2643679,1.859375 C88.2643679,1.859375 88.1517241,1.859375 88.1517241,1.984375 L88.1356321,8.234375 Z" id="Shape"></path>
                    <path d="M111.42069,0.359375 C113.761162,0.263193947 116.034586,1.13142156 117.68046,2.75 C120.817502,6.18203605 120.817502,11.3492139 117.68046,14.78125 C116.040814,16.4105907 113.764626,17.2855555 111.42069,17.1875 C109.063153,17.2724827 106.77433,16.4072715 105.096552,14.796875 C103.434674,13.2137 102.535278,11.0247858 102.618391,8.765625 C102.54526,6.48343877 103.451333,4.27422511 105.120204,2.66563051 C106.789075,1.05703592 109.0709,0.193493167 111.42069,0.28125 L111.42069,0.359375 Z M111.114942,1.421875 C109.329944,1.35892517 107.629357,2.16112314 106.577011,3.5625 C105.570909,4.92673506 105.05108,6.57264005 105.096552,8.25 C105.087935,9.523394 105.333859,10.7863147 105.82069,11.96875 C106.30282,13.177817 107.128743,14.229031 108.202299,15 C109.224138,15.7518681 110.476752,16.1481175 111.758621,16.125 C113.532482,16.2036981 115.220855,15.3810493 116.216092,13.953125 C117.14945,12.5614796 117.621202,10.9255415 117.567816,9.265625 C117.632104,7.31526494 117.032599,5.39869805 115.862069,3.8125 C114.797043,2.28831599 113.011574,1.38916417 111.114942,1.421875 Z" id="Shape"></path>
                    <polygon id="Shape" points="128.832184 0.71875 128.96092 0.828125 127.770115 1.765625 127.673564 1.765625 127.673564 1.890625 132.42069 13.8125 137.248276 1.84375 137.11954 1.671875 135.63908 0.78125 135.767816 0.671875 139.822989 0.671875 138.648276 1.71875 138.551724 1.71875 132.114942 17.0625 132.018391 17.140625 131.342529 17.140625 131.245977 17.0625 125.211494 1.765625 125.114942 1.6875 123.505747 0.71875 123.650575 0.609375"></polygon>
                </g>
                <g id="Group" transform="translate(26.000000, 29.000000)">
                    <path d="M3.55,0.864285714 L2.90454545,1.28857142 L2.90454545,6.85142858 C2.93333192,7.47460961 2.82323431,8.09647277 2.58181819,8.67428572 C2.20355314,9.34463613 1.57305084,9.84598397 0.822954545,10.0728571 C0.822954545,10.0728571 0.822954545,10.0728571 0.822954545,10.0728571 L0.693863636,9.86857142 C0.989547435,9.71351589 1.25674165,9.51172408 1.48454545,9.27142858 C1.80046927,8.86327331 1.97557961,8.36818627 1.98477272,7.85714286 C1.98477272,7.63714286 1.98477272,7.37 1.98477272,7.05571428 L1.98477272,1.39857142 L1.33931819,0.974285714 L3.55,0.864285714 Z" id="Shape"></path>
                    <path d="M9.48818181,1.57142858 L9.48818181,3.01714286 L8.85886364,1.93285714 L6.45454545,1.93285714 L6.45454545,4.21142858 L7.84227272,4.21142858 L8.32636364,3.85 L8.32636364,5.01285714 L7.84227272,4.57285714 L6.45454545,4.57285714 L6.45454545,7.07142858 L8.89113636,7.07142858 L9.68181819,6.28571428 L9.68181819,7.71571428 C9.68181819,7.71571428 9.68181819,7.71571428 9.68181819,7.71571428 L4.92159091,7.71571428 L5.58318181,7.35428572 L5.58318181,1.96428572 L4.84090909,1.57142858 L9.48818181,1.57142858 Z" id="Shape"></path>
                    <polygon id="Shape" points="12.9090909 1.57142858 12.9090909 1.57142858 12.3927273 1.93285714 12.3927273 1.93285714 12.3927273 1.93285714 14.2 6.50571428 15.4747727 3.28428572 14.9584091 1.90142858 14.9584091 1.90142858 14.3775 1.57142858 14.3775 1.57142858 16.4106819 1.57142858 16.4106819 1.57142858 15.8943181 1.93285714 15.8943181 1.93285714 17.75 6.58428572 19.5411364 1.98 19.5411364 1.98 18.8795455 1.57142858 18.8795455 1.57142858 20.4931819 1.57142858 20.4931819 1.57142858 19.8961364 1.93285714 19.8961364 1.93285714 17.6209091 7.85714286 17.6209091 7.85714286 17.3465909 7.85714286 17.3465909 7.85714286 15.8620455 3.97571428 14.2484091 7.85714286 14.2484091 7.85714286 14.0063636 7.85714286 14.0063636 7.85714286 11.6827273 1.98 11.6827273 1.98 10.9565909 1.57142858"></polygon>
                    <path d="M26.8509091,1.57142858 L26.8509091,3.01714286 L26.2215909,1.93285714 L23.8818181,1.93285714 L23.8818181,4.21142858 L25.2695455,4.21142858 L25.7536364,3.85 L25.7536364,5.01285714 L25.2695455,4.57285714 L23.8818181,4.57285714 L23.8818181,7.07142858 L26.3184091,7.07142858 L26.9477272,6.00285714 L26.9477272,7.43285714 C26.9477272,7.43285714 26.9477272,7.43285714 26.9477272,7.43285714 L22.2843181,7.43285714 L22.9459091,7.07142858 L22.9459091,1.96428572 L22.2520455,1.57142858 L26.8509091,1.57142858 Z" id="Shape"></path>
                    <path d="M30.6590909,1.57142858 C31.340024,1.52193596 32.0216656,1.657963 32.6277272,1.96428572 C33.0649537,2.224955 33.328665,2.69080256 33.3215909,3.19 C33.3291489,3.79478904 32.9493125,4.34023638 32.3695455,4.55714286 C32.1687995,4.65689757 31.957876,4.73590007 31.7402272,4.79285714 C32.16947,5.03247536 32.5129991,5.39444039 32.7245455,5.83 L33.5797727,7.40142858 L34.3704545,7.76285714 L32.7568181,7.76285714 L31.8854545,6.09714286 C31.6431951,5.41672745 31.0092204,4.94133568 30.2718181,4.88714286 L30.1588636,4.88714286 C30.1588636,4.88714286 30.1588636,4.88714286 30.1588636,4.88714286 L30.1588636,7.30714286 L30.8043181,7.66857142 L28.7065909,7.66857142 L29.2875,7.30714286 L29.2875,1.98 L28.5613636,1.57142858 L30.6590909,1.57142858 Z M30.0943181,4.46285714 C30.0943181,4.46285714 30.0943181,4.46285714 30.0943181,4.46285714 L31.0625,4.46285714 C31.4750901,4.47044459 31.8659284,4.28306482 32.1113636,3.96 C32.2432695,3.77013356 32.3109685,3.54487869 32.305,3.31571428 C32.305,2.42523809 31.6864394,1.98523809 30.4493181,1.99571428 L30.0943181,1.99571428 C30.0943181,1.99571428 30.0943181,1.99571428 30.0943181,1.99571428 L30.0943181,4.46285714 Z" id="Shape"></path>
                    <polygon id="Shape" points="35.9840909 1.57142858 35.9840909 1.57142858 38.0979545 1.57142858 38.0979545 1.57142858 37.5170455 1.93285714 37.5170455 1.93285714 37.5170455 7.22857142 37.5170455 7.22857142 39.8568181 7.22857142 39.8568181 7.22857142 40.4861364 6.16 40.4861364 6.16 40.4861364 7.59 40.4861364 7.59 36.0325 7.59 36.0325 7.59 36.6779545 7.22857142 36.6779545 7.22857142 36.6779545 1.98 36.6779545 1.98"></polygon>
                    <polygon id="Shape" points="47.0536364 1.98 47.0536364 1.98 47.0536364 1.98 46.6502273 1.63428572 46.6502273 1.63428572 48.1025 1.63428572 48.1025 1.63428572 47.5861364 1.99571428 47.5861364 1.99571428 45.5852272 5.13857142 45.5852272 7.33857142 45.5852272 7.33857142 46.1984091 7.7 46.1984091 7.7 44.1329545 7.7 44.1329545 7.7 44.6977272 7.33857142 44.6977272 7.33857142 44.6977272 5.12285714 42.7290909 1.98 42.7290909 1.98 42.1481819 1.61857142 42.1481819 1.61857142 44.1975 1.61857142 44.1975 1.61857142 43.7134091 1.96428572 43.7134091 1.96428572 43.7134091 1.96428572 45.3270455 4.63571428"></polygon>
                    <polygon id="Shape" points="53.4920455 0.911428572 53.4920455 0.911428572 55.8640909 0.911428572 55.8640909 0.911428572 55.1863636 1.33571428 55.1863636 1.33571428 55.1863636 3.99142858 58.8654545 3.99142858 58.8654545 1.39857142 58.8654545 1.39857142 58.1877272 0.974285714 58.1877272 0.974285714 60.4790909 0.974285714 60.4790909 0.974285714 59.8659091 1.39857142 59.8659091 1.39857142 59.8659091 7.68428572 59.8659091 7.68428572 60.4790909 8.10857142 60.4790909 8.10857142 58.1877272 8.10857142 58.1877272 8.10857142 58.8654545 7.68428572 58.8654545 7.68428572 58.8654545 4.60428572 58.8654545 4.60428572 55.2670455 4.60428572 55.2670455 4.60428572 55.2670455 7.63714286 55.2670455 7.63714286 55.9447727 8.06142858 55.9447727 8.06142858 53.5727272 8.06142858 53.5727272 8.06142858 54.2665909 7.63714286 54.2665909 7.63714286 54.2665909 1.35142858 54.2665909 1.35142858"></polygon>
                    <path d="M65.675,1.38285714 C66.5939239,1.3477539 67.4870567,1.68315589 68.1438636,2.31 C69.3706282,3.61830339 69.3706282,5.62169661 68.1438636,6.93 C67.5014442,7.5700577 66.609275,7.91301803 65.6911364,7.87285714 C64.7702746,7.90909492 63.8736636,7.58024305 63.2061364,6.96142858 C62.5598164,6.36117954 62.2075375,5.52067175 62.2379545,4.65142858 C62.2108354,3.7812392 62.5555786,2.9390796 63.19,2.32571428 C63.8532437,1.69698296 64.749797,1.35681327 65.675,1.38285714 Z M65.5620455,1.79142858 C64.8696251,1.76883701 64.2085931,2.07315109 63.7870455,2.60857142 C63.3894646,3.12981162 63.1847225,3.76674142 63.2061364,4.41571428 C63.2026689,4.9066034 63.301479,5.39307718 63.4965909,5.84571428 C63.6877644,6.31262166 64.0126102,6.71623913 64.4325,7.00857142 C64.8389779,7.29980142 65.3317622,7.45425028 65.8363636,7.44857142 C66.5246439,7.47638776 67.1805745,7.16291556 67.5790909,6.61571428 C67.9392826,6.07412309 68.119566,5.43768997 68.0954545,4.79285714 C68.117748,4.04418708 67.8851376,3.3093588 67.4338636,2.70285714 C67.0045167,2.11466779 66.3028439,1.77300812 65.5620455,1.79142858 Z" id="Shape"></path>
                    <path d="M71.1290909,1.98 L70.6772727,1.61857142 L72.6136364,1.61857142 L72.0811364,1.98 L72.0811364,5.31142858 C72.0704154,5.66936919 72.097451,6.02743615 72.1618181,6.38 C72.1964352,6.56369923 72.2862949,6.73324815 72.42,6.86714286 C72.8212555,7.25376841 73.3736255,7.45405839 73.9368181,7.41714286 C74.5814606,7.46080785 75.1995394,7.15985202 75.5504545,6.63142858 C75.6901295,6.40268546 75.7678622,6.14314419 75.7763636,5.87714286 C75.7888044,5.65206768 75.7888044,5.42650374 75.7763636,5.20142858 L75.7763636,1.98 L75.1954545,1.57142858 L76.6638636,1.57142858 L76.2120455,1.93285714 L76.2120455,5.07571428 C76.2985431,5.84383607 76.0530185,6.61237996 75.5343181,7.19714286 C75.0126979,7.61104296 74.3502292,7.81860991 73.6786364,7.77857142 C72.9453266,7.83537485 72.2175879,7.61601428 71.6454545,7.16571428 C71.464288,7.00354998 71.3211834,6.80522793 71.2259091,6.58428572 C71.1164607,6.24931088 71.0673276,5.89842546 71.0806819,5.54714286 L71.1290909,1.98 Z" id="Shape"></path>
                    <path d="M81.6015909,2.01142858 C81.4934647,1.88719296 81.3330577,1.81776577 81.1659091,1.82285714 L80.6818181,1.82285714 C80.3637645,1.81369963 80.0515935,1.90766497 79.7943181,2.09 C79.5383101,2.25219347 79.3859251,2.53118372 79.3909091,2.82857142 C79.390121,3.11849217 79.5198714,3.39417892 79.7459091,3.58285714 C79.9842246,3.76888211 80.2510276,3.91735312 80.5365909,4.02285714 L81.1981819,4.30571428 C81.6059457,4.46090771 81.9827434,4.68426354 82.3115909,4.96571428 C82.5981409,5.24414466 82.7555152,5.62445141 82.7472727,6.01857142 C82.7799937,6.59793975 82.4822106,7.1477202 81.9727272,7.44857142 C81.4581422,7.76785612 80.8558532,7.92682353 80.2461364,7.90428572 C79.8280571,7.89918526 79.411654,7.85178784 79.0036364,7.76285714 L78.6486364,7.66857142 C78.6486364,7.66857142 78.6486364,7.66857142 78.6486364,7.66857142 L78.6486364,6.27 L79.3102272,7.35428572 C79.623446,7.4730984 79.9587669,7.52663118 80.2945455,7.51142858 C80.6580215,7.52108688 81.0166291,7.42832334 81.3272727,7.24428572 C81.6372472,7.07026602 81.8234026,6.74395096 81.8113636,6.39571428 C81.8113636,5.89285714 81.445606,5.48428572 80.7140909,5.17 L80.0525,4.88714286 C79.6574172,4.73323993 79.2918897,4.51540968 78.9713636,4.24285714 C78.6737391,3.98903063 78.5031545,3.62241529 78.5034091,3.23714286 C78.4995004,2.85720252 78.6370817,2.48875009 78.8906819,2.2 C79.1533435,1.90648536 79.4938819,1.68902245 79.875,1.57142858 C80.1476304,1.49482366 80.4303641,1.4577589 80.7140909,1.46142858 C81.1161562,1.46704048 81.5164564,1.51445218 81.9081819,1.60285714 L82.2954545,1.57142858 C82.2954545,1.57142858 82.2954545,1.57142858 82.2954545,1.57142858 L82.2954545,2.97 L81.6015909,2.01142858 Z" id="Shape"></path>
                    <path d="M88.6693181,1.57142858 L88.6693181,3.01714286 L88.04,1.93285714 L85.6840909,1.93285714 L85.6840909,4.21142858 L87.1363636,4.21142858 L87.6204545,3.85 L87.6204545,5.01285714 L87.1363636,4.71428572 L85.7486364,4.71428572 L85.7486364,7.21285714 L88.1852272,7.21285714 L88.75,6.28571428 L88.75,7.71571428 C88.75,7.71571428 88.75,7.71571428 88.75,7.71571428 L84.0381819,7.71571428 L84.6997727,7.35428572 L84.6997727,1.96428572 L84.0381819,1.60285714 L88.6693181,1.57142858 Z" id="Shape"></path>
                </g>
            </g>
        </g>
    </g>
</svg>