<?xml version="1.0" encoding="UTF-8"?>
<svg width="16px" height="14px" viewBox="0 0 16 14" version="1.1" xmlns="http://www.w3.org/2000/svg" xmlns:xlink="http://www.w3.org/1999/xlink">
    <!-- Generator: Sketch 51.2 (57519) - http://www.bohemiancoding.com/sketch -->
    <title></title>
    <desc>Created with Sketch.</desc>
    <defs></defs>
    <g id="Page-1" stroke="none" stroke-width="1" fill="none" fill-rule="evenodd">
        <g id="Ховеры" transform="translate(-506.000000, -193.000000)" fill="#FFFFFF">
            <g id="Group-26-Copy" transform="translate(409.000000, 54.000000)">
                <g id="Group-2" transform="translate(75.000000, 115.000000)">
                    <g id="Group-5-Copy">
                        <path d="M37.625601,26.875 C37.8756022,27.4791697 38.000601,28.11458 38.000601,28.78125 C38.000601,29.5104203 37.8495608,30.1979134 37.547476,30.84375 C37.2453911,31.4895866 36.8235203,32.0364561 36.281851,32.484375 C35.8860157,32.8489602 34.8651925,33.7812425 33.219351,35.28125 C31.6776766,36.687507 30.7349777,37.5468734 30.391226,37.859375 C30.2766421,37.9531255 30.146435,38 30.000601,38 C29.8547669,38 29.7245599,37.9531255 29.609976,37.859375 C29.0995568,37.4010394 27.7610285,36.1770933 25.594351,34.1875 C24.5630958,33.2499953 23.97456,32.7187506 23.828726,32.59375 C23.7870591,32.5520831 23.7401846,32.5104169 23.688101,32.46875 C23.1568483,32.0208311 22.7453941,31.4765657 22.453726,30.8359375 C22.1620578,30.1953093 22.0110177,29.5156286 22.000601,28.796875 C21.9901843,28.1406217 22.115183,27.5052114 22.375601,26.890625 C22.6151855,26.3072888 22.9589321,25.7916689 23.406851,25.34375 C24.2818553,24.4479122 25.3287199,24 26.547476,24 C27.214146,24 27.8469521,24.1458319 28.4459135,24.4375 C29.0448748,24.7291681 29.5630988,25.1406223 30.000601,25.671875 C30.4381032,25.1406223 30.9563271,24.7291681 31.5552885,24.4375 C32.1542498,24.1458319 32.787056,24 33.453726,24 C34.6724821,24 35.7193466,24.4427039 36.594351,25.328125 C37.0422699,25.7760439 37.3860164,26.2916637 37.625601,26.875 Z" id=""></path>
                    </g>
                </g>
            </g>
        </g>
    </g>
</svg>